<?xml version="1.0" encoding="UTF-8"?>
<svg width="24px" height="24px" viewBox="0 0 24 24" version="1.1" xmlns="http://www.w3.org/2000/svg" xmlns:xlink="http://www.w3.org/1999/xlink">
    <!-- Generator: Sketch 51.3 (57544) - http://www.bohemiancoding.com/sketch -->
    <title>Icons/scroll-down</title>
    <desc>Created with Sketch.</desc>
    <defs></defs>
    <g id="Icons/scroll-down" stroke="none" stroke-width="1" fill="none" fill-rule="evenodd">
        <g id="down">
            <rect id="Rectangle" x="0" y="0" width="24" height="24"></rect>
            <polygon id="Shape" fill="#000000" fill-rule="nonzero" points="6 8 4 8 12.5024127 16.721569 21 8 19 8 12.5024127 14.5"></polygon>
        </g>
    </g>
</svg>